SARA | The Non-Profit – Data Transformation
…
Import a Local CSV file

The readr package reads rectangular data files.

sample_data <- read_csv(here("data", "sample.csv"))

Data source: https://www.stats.govt.nz/large-datasets/csv-files-for-download/

View your Data

sample_data

# A tibble: 33,644 × 14
   Series_reference Period Data_value Suppressed STATUS UNITS  Magnitude Subject
   <chr>             <dbl>      <dbl> <lgl>      <chr>  <chr>      <dbl> <chr>  
 1 MEIM.S1WA         1999.      80267 NA         F      Number         0 Employ…
 2 MEIM.S1WA         1999.      70803 NA         F      Number         0 Employ…
 3 MEIM.S1WA         1999.      65792 NA         F      Number         0 Employ…
 4 MEIM.S1WA         1999.      66194 NA         F      Number         0 Employ…
 5 MEIM.S1WA         1999.      67259 NA         F      Number         0 Employ…
 6 MEIM.S1WA         1999.      69691 NA         F      Number         0 Employ…
 7 MEIM.S1WA         1999.      72475 NA         F      Number         0 Employ…
 8 MEIM.S1WA         1999.      79263 NA         F      Number         0 Employ…
 9 MEIM.S1WA         1999.      86540 NA         F      Number         0 Employ…
10 MEIM.S1WA         2000.      82552 NA         F      Number         0 Employ…
# ℹ 33,634 more rows
# ℹ 6 more variables: Group <chr>, Series_title_1 <chr>, Series_title_2 <chr>,
#   Series_title_3 <chr>, Series_title_4 <chr>, Series_title_5 <lgl>
…
What data types are the columns/variables?

Answers

# to install a package
# install.packages("palmerpenguins")

# to call/load a package
library(palmerpenguins)

# to load the data
penguins

# A tibble: 344 × 8
   species island    bill_length_mm bill_depth_mm flipper_length_mm body_mass_g
   <fct>   <fct>              <dbl>         <dbl>             <int>       <int>
 1 Adelie  Torgersen           39.1          18.7               181        3750
 2 Adelie  Torgersen           39.5          17.4               186        3800
 3 Adelie  Torgersen           40.3          18                 195        3250
 4 Adelie  Torgersen           NA            NA                  NA          NA
 5 Adelie  Torgersen           36.7          19.3               193        3450
 6 Adelie  Torgersen           39.3          20.6               190        3650
 7 Adelie  Torgersen           38.9          17.8               181        3625
 8 Adelie  Torgersen           39.2          19.6               195        4675
 9 Adelie  Torgersen           34.1          18.1               193        3475
10 Adelie  Torgersen           42            20.2               190        4250
# ℹ 334 more rows
# ℹ 2 more variables: sex <fct>, year <int>
…
filter() function

# Single condition factor
penguins |>
  filter(sex == "male")

# A tibble: 168 × 8
   species island    bill_length_mm bill_depth_mm flipper_length_mm body_mass_g
   <fct>   <fct>              <dbl>         <dbl>             <int>       <int>
 1 Adelie  Torgersen           39.1          18.7               181        3750
 2 Adelie  Torgersen           39.3          20.6               190        3650
 3 Adelie  Torgersen           39.2          19.6               195        4675
 4 Adelie  Torgersen           38.6          21.2               191        3800
 5 Adelie  Torgersen           34.6          21.1               198        4400
 6 Adelie  Torgersen           42.5          20.7               197        4500
 7 Adelie  Torgersen           46            21.5               194        4200
 8 Adelie  Biscoe              37.7          18.7               180        3600
 9 Adelie  Biscoe              38.2          18.1               185        3950
10 Adelie  Biscoe              38.8          17.2               180        3800
# ℹ 158 more rows
# ℹ 2 more variables: sex <fct>, year <int>

filter() function

# Single condition numeric
penguins |>
  filter(body_mass_g >= 5000)

# A tibble: 67 × 8
   species island bill_length_mm bill_depth_mm flipper_length_mm body_mass_g
   <fct>   <fct>           <dbl>         <dbl>             <int>       <int>
 1 Gentoo  Biscoe           50            16.3               230        5700
 2 Gentoo  Biscoe           50            15.2               218        5700
 3 Gentoo  Biscoe           47.6          14.5               215        5400
 4 Gentoo  Biscoe           46.7          15.3               219        5200
 5 Gentoo  Biscoe           46.8          15.4               215        5150
 6 Gentoo  Biscoe           49            16.1               216        5550
 7 Gentoo  Biscoe           48.4          14.6               213        5850
 8 Gentoo  Biscoe           49.3          15.7               217        5850
 9 Gentoo  Biscoe           49.2          15.2               221        6300
10 Gentoo  Biscoe           48.7          15.1               222        5350
# ℹ 57 more rows
# ℹ 2 more variables: sex <fct>, year <int>

filter() function

# multiple conditions
penguins |>
  filter(species == "Gentoo", body_mass_g > 1000, bill_length_mm > 45)

# A tibble: 100 × 8
   species island bill_length_mm bill_depth_mm flipper_length_mm body_mass_g
   <fct>   <fct>           <dbl>         <dbl>             <int>       <int>
 1 Gentoo  Biscoe           46.1          13.2               211        4500
 2 Gentoo  Biscoe           50            16.3               230        5700
 3 Gentoo  Biscoe           48.7          14.1               210        4450
 4 Gentoo  Biscoe           50            15.2               218        5700
 5 Gentoo  Biscoe           47.6          14.5               215        5400
 6 Gentoo  Biscoe           46.5          13.5               210        4550
 7 Gentoo  Biscoe           45.4          14.6               211        4800
 8 Gentoo  Biscoe           46.7          15.3               219        5200
 9 Gentoo  Biscoe           46.8          15.4               215        5150
10 Gentoo  Biscoe           49            16.1               216        5550
# ℹ 90 more rows
# ℹ 2 more variables: sex <fct>, year <int>

filter() function

# or conditions
penguins |>
  filter(species == "Gentoo" | body_mass_g > 4000)

# A tibble: 174 × 8
   species island    bill_length_mm bill_depth_mm flipper_length_mm body_mass_g
   <fct>   <fct>              <dbl>         <dbl>             <int>       <int>
 1 Adelie  Torgersen           39.2          19.6               195        4675
 2 Adelie  Torgersen           42            20.2               190        4250
 3 Adelie  Torgersen           34.6          21.1               198        4400
 4 Adelie  Torgersen           42.5          20.7               197        4500
 5 Adelie  Torgersen           46            21.5               194        4200
 6 Adelie  Dream               39.2          21.1               196        4150
 7 Adelie  Dream               39.8          19.1               184        4650
 8 Adelie  Dream               44.1          19.7               196        4400
 9 Adelie  Dream               39.6          18.8               190        4600
10 Adelie  Dream               42.3          21.2               191        4150
# ℹ 164 more rows
# ℹ 2 more variables: sex <fct>, year <int>
…
penguins_male <- penguins |>
  filter(sex == "male")

penguins_male

# A tibble: 168 × 8
   species island    bill_length_mm bill_depth_mm flipper_length_mm body_mass_g
   <fct>   <fct>              <dbl>         <dbl>             <int>       <int>
 1 Adelie  Torgersen           39.1          18.7               181        3750
 2 Adelie  Torgersen           39.3          20.6               190        3650
 3 Adelie  Torgersen           39.2          19.6               195        4675
 4 Adelie  Torgersen           38.6          21.2               191        3800
 5 Adelie  Torgersen           34.6          21.1               198        4400
 6 Adelie  Torgersen           42.5          20.7               197        4500
 7 Adelie  Torgersen           46            21.5               194        4200
 8 Adelie  Biscoe              37.7          18.7               180        3600
 9 Adelie  Biscoe              38.2          18.1               185        3950
10 Adelie  Biscoe              38.8          17.2               180        3800
# ℹ 158 more rows
# ℹ 2 more variables: sex <fct>, year <int>
…
penguins |>
  filter(bill_length_mm > 43)

# A tibble: 188 × 8
   species island    bill_length_mm bill_depth_mm flipper_length_mm body_mass_g
   <fct>   <fct>              <dbl>         <dbl>             <int>       <int>
 1 Adelie  Torgersen           46            21.5               194        4200
 2 Adelie  Dream               44.1          19.7               196        4400
 3 Adelie  Torgersen           45.8          18.9               197        4150
 4 Adelie  Dream               43.2          18.5               192        4100
 5 Adelie  Biscoe              43.2          19                 197        4775
 6 Adelie  Biscoe              45.6          20.3               191        4600
 7 Adelie  Torgersen           44.1          18                 210        4000
 8 Adelie  Torgersen           43.1          19.2               197        3500
 9 Gentoo  Biscoe              46.1          13.2               211        4500
10 Gentoo  Biscoe              50            16.3               230        5700
# ℹ 178 more rows
# ℹ 2 more variables: sex <fct>, year <int>

Your Turn

How to have a data of only Adele penguins?

How to have a data of penguins of bill depth more than 10 mm?

Answer

# question number 1
penguins |>
  filter(species == "Adelie")

# A tibble: 152 × 8
   species island    bill_length_mm bill_depth_mm flipper_length_mm body_mass_g
   <fct>   <fct>              <dbl>         <dbl>             <int>       <int>
 1 Adelie  Torgersen           39.1          18.7               181        3750
 2 Adelie  Torgersen           39.5          17.4               186        3800
 3 Adelie  Torgersen           40.3          18                 195        3250
 4 Adelie  Torgersen           NA            NA                  NA          NA
 5 Adelie  Torgersen           36.7          19.3               193        3450
 6 Adelie  Torgersen           39.3          20.6               190        3650
 7 Adelie  Torgersen           38.9          17.8               181        3625
 8 Adelie  Torgersen           39.2          19.6               195        4675
 9 Adelie  Torgersen           34.1          18.1               193        3475
10 Adelie  Torgersen           42            20.2               190        4250
# ℹ 142 more rows
# ℹ 2 more variables: sex <fct>, year <int>
…
arrange() function

# Ascending (default)
penguins |>
  arrange(body_mass_g)

# A tibble: 344 × 8
   species   island   bill_length_mm bill_depth_mm flipper_length_mm body_mass_g
   <fct>     <fct>             <dbl>         <dbl>             <int>       <int>
 1 Chinstrap Dream              46.9          16.6               192        2700
 2 Adelie    Biscoe             36.5          16.6               181        2850
 3 Adelie    Biscoe             36.4          17.1               184        2850
 4 Adelie    Biscoe             34.5          18.1               187        2900
 5 Adelie    Dream              33.1          16.1               178        2900
 6 Adelie    Torgers…           38.6          17                 188        2900
 7 Chinstrap Dream              43.2          16.6               187        2900
 8 Adelie    Biscoe             37.9          18.6               193        2925
 9 Adelie    Dream              37.5          18.9               179        2975
10 Adelie    Dream              37            16.9               185        3000
# ℹ 334 more rows
# ℹ 2 more variables: sex <fct>, year <int>

arrange() function

# Descending
penguins |>
  arrange(desc(body_mass_g))

# A tibble: 344 × 8
   species island bill_length_mm bill_depth_mm flipper_length_mm body_mass_g
   <fct>   <fct>           <dbl>         <dbl>             <int>       <int>
 1 Gentoo  Biscoe           49.2          15.2               221        6300
 2 Gentoo  Biscoe           59.6          17                 230        6050
 3 Gentoo  Biscoe           51.1          16.3               220        6000
 4 Gentoo  Biscoe           48.8          16.2               222        6000
 5 Gentoo  Biscoe           45.2          16.4               223        5950
 6 Gentoo  Biscoe           49.8          15.9               229        5950
 7 Gentoo  Biscoe           48.4          14.6               213        5850
 8 Gentoo  Biscoe           49.3          15.7               217        5850
 9 Gentoo  Biscoe           55.1          16                 230        5850
10 Gentoo  Biscoe           49.5          16.2               229        5800
# ℹ 334 more rows
# ℹ 2 more variables: sex <fct>, year <int>

arrange() Function

Task
Code
Output

How to arrange data as per the bill length of the penguins?

penguins |>
  arrange(bill_length_mm) #default is ascending order

# A tibble: 344 × 8
   species island    bill_length_mm bill_depth_mm flipper_length_mm body_mass_g
   <fct>   <fct>              <dbl>         <dbl>             <int>       <int>
 1 Adelie  Dream               32.1          15.5               188        3050
 2 Adelie  Dream               33.1          16.1               178        2900
 3 Adelie  Torgersen           33.5          19                 190        3600
 4 Adelie  Dream               34            17.1               185        3400
 5 Adelie  Torgersen           34.1          18.1               193        3475
 6 Adelie  Torgersen           34.4          18.4               184        3325
 7 Adelie  Biscoe              34.5          18.1               187        2900
 8 Adelie  Torgersen           34.6          21.1               198        4400
 9 Adelie  Torgersen           34.6          17.2               189        3200
10 Adelie  Biscoe              35            17.9               190        3450
# ℹ 334 more rows
# ℹ 2 more variables: sex <fct>, year <int>
…
select() function

# select by name
penguins |>
  select(sex, year, species, island)

# A tibble: 344 × 4
   sex     year species island   
   <fct>  <int> <fct>   <fct>    
 1 male    2007 Adelie  Torgersen
 2 female  2007 Adelie  Torgersen
 3 female  2007 Adelie  Torgersen
 4 <NA>    2007 Adelie  Torgersen
 5 female  2007 Adelie  Torgersen
 6 male    2007 Adelie  Torgersen
 7 female  2007 Adelie  Torgersen
 8 male    2007 Adelie  Torgersen
 9 <NA>    2007 Adelie  Torgersen
10 <NA>    2007 Adelie  Torgersen
# ℹ 334 more rows

select() function

# drop columns
penguins |>
  select(-sex, -island, -bill_depth_mm)

# A tibble: 344 × 5
   species bill_length_mm flipper_length_mm body_mass_g  year
   <fct>            <dbl>             <int>       <int> <int>
 1 Adelie            39.1               181        3750  2007
 2 Adelie            39.5               186        3800  2007
 3 Adelie            40.3               195        3250  2007
 4 Adelie            NA                  NA          NA  2007
 5 Adelie            36.7               193        3450  2007
 6 Adelie            39.3               190        3650  2007
 7 Adelie            38.9               181        3625  2007
 8 Adelie            39.2               195        4675  2007
 9 Adelie            34.1               193        3475  2007
10 Adelie            42                 190        4250  2007
# ℹ 334 more rows
…
select() function

# name and order of the variables/columns
names(penguins)

[1] "species"           "island"            "bill_length_mm"   
[4] "bill_depth_mm"     "flipper_length_mm" "body_mass_g"      
[7] "sex"               "year"             

# sequence of variables
penguins |>
  select(island:flipper_length_mm)

# A tibble: 344 × 4
   island    bill_length_mm bill_depth_mm flipper_length_mm
   <fct>              <dbl>         <dbl>             <int>
 1 Torgersen           39.1          18.7               181
 2 Torgersen           39.5          17.4               186
 3 Torgersen           40.3          18                 195
 4 Torgersen           NA            NA                  NA
 5 Torgersen           36.7          19.3               193
 6 Torgersen           39.3          20.6               190
 7 Torgersen           38.9          17.8               181
 8 Torgersen           39.2          19.6               195
 9 Torgersen           34.1          18.1               193
10 Torgersen           42            20.2               190
# ℹ 334 more rows

# Use location value of the variable.
penguins |>
  select(3:7)

# A tibble: 344 × 5
   bill_length_mm bill_depth_mm flipper_length_mm body_mass_g sex   
            <dbl>         <dbl>             <int>       <int> <fct> 
 1           39.1          18.7               181        3750 male  
 2           39.5          17.4               186        3800 female
 3           40.3          18                 195        3250 female
 4           NA            NA                  NA          NA <NA>  
 5           36.7          19.3               193        3450 female
 6           39.3          20.6               190        3650 male  
 7           38.9          17.8               181        3625 female
 8           39.2          19.6               195        4675 male  
 9           34.1          18.1               193        3475 <NA>  
10           42            20.2               190        4250 <NA>  
# ℹ 334 more rows

# Use `-` operator to not to select the range of variables.
penguins |>
  select(-c(island:flipper_length_mm))

# A tibble: 344 × 4
   species body_mass_g sex     year
   <fct>         <int> <fct>  <int>
 1 Adelie         3750 male    2007
 2 Adelie         3800 female  2007
 3 Adelie         3250 female  2007
 4 Adelie           NA <NA>    2007
 5 Adelie         3450 female  2007
 6 Adelie         3650 male    2007
 7 Adelie         3625 female  2007
 8 Adelie         4675 male    2007
 9 Adelie         3475 <NA>    2007
10 Adelie         4250 <NA>    2007
# ℹ 334 more rows
…
mutate() Function

Task
Code
Output

How to convert body mass of penguins from grams to kilograms?

penguins |>
  select(sex, species, body_mass_g) |>
  mutate(body_mass_kg = body_mass_g / 1000)

# A tibble: 344 × 4
   sex    species body_mass_g body_mass_kg
   <fct>  <fct>         <int>        <dbl>
 1 male   Adelie         3750         3.75
 2 female Adelie         3800         3.8 
 3 female Adelie         3250         3.25
 4 <NA>   Adelie           NA        NA   
 5 female Adelie         3450         3.45
 6 male   Adelie         3650         3.65
 7 female Adelie         3625         3.62
 8 male   Adelie         4675         4.68
 9 <NA>   Adelie         3475         3.48
10 <NA>   Adelie         4250         4.25
# ℹ 334 more rows

mutate() Function

Task
Code
Output

How to measure the penguin’s bill size using length and depth?

penguins |>
  mutate(bill_size = bill_length_mm * bill_depth_mm) |>
  select(bill_size)

# A tibble: 344 × 1
   bill_size
       <dbl>
 1      731.
 2      687.
 3      725.
 4       NA 
 5      708.
 6      810.
 7      692.
 8      768.
 9      617.
10      848.
# ℹ 334 more rows
…
